EESchema Schematic File Version 4
EELAYER 30 0
EELAYER END
$Descr A4 11693 8268
encoding utf-8
Sheet 1 3
Title ""
Date ""
Rev ""
Comp ""
Comment1 ""
Comment2 ""
Comment3 ""
Comment4 ""
$EndDescr
$Sheet
S 3800 1150 800  4000
U 611E7A25
F0 "programmer_io" 50
F1 "programmer_io.sch" 50
F2 "PA0" I L 3800 1300 50 
F3 "PA1" I L 3800 1400 50 
F4 "PA2" I L 3800 1500 50 
F5 "PA3" I L 3800 1600 50 
F6 "PA4" I L 3800 1700 50 
F7 "PA5" I L 3800 1800 50 
F8 "PA6" I L 3800 1900 50 
F9 "PA7" I L 3800 2000 50 
F10 "PB0" I L 3800 2300 50 
F11 "PB1" I L 3800 2400 50 
F12 "PB2" I L 3800 2500 50 
F13 "PB3" I L 3800 2600 50 
F14 "PB4" I L 3800 2700 50 
F15 "PB5" I L 3800 2800 50 
F16 "PB6" I L 3800 2900 50 
F17 "PB7" I L 3800 3000 50 
F18 "PC0" I L 3800 3300 50 
F19 "PC1" I L 3800 3400 50 
F20 "PC2" I L 3800 3500 50 
F21 "PC3" I L 3800 3600 50 
F22 "PC4" I L 3800 3700 50 
F23 "PC5" I L 3800 3800 50 
F24 "PC6" I L 3800 3900 50 
F25 "PC7" I L 3800 4000 50 
F26 "PD0" I L 3800 4300 50 
F27 "PD1" I L 3800 4400 50 
F28 "PD2" I L 3800 4500 50 
F29 "PD3" I L 3800 4600 50 
F30 "PD4" I L 3800 4700 50 
F31 "PD5" I L 3800 4800 50 
F32 "PD6" I L 3800 4900 50 
F33 "PD7" I L 3800 5000 50 
$EndSheet
$Sheet
S 1950 1150 750  4000
U 6114304B
F0 "programmer_ftdi" 50
F1 "programmer_ftdi.sch" 50
F2 "PA0" I R 2700 1300 50 
F3 "PA1" I R 2700 1400 50 
F4 "PA2" I R 2700 1500 50 
F5 "PA3" I R 2700 1600 50 
F6 "PA4" I R 2700 1700 50 
F7 "PA5" I R 2700 1800 50 
F8 "PA6" I R 2700 1900 50 
F9 "PA7" I R 2700 2000 50 
F10 "PB0" I R 2700 2300 50 
F11 "PB1" I R 2700 2400 50 
F12 "PB2" I R 2700 2500 50 
F13 "PB3" I R 2700 2600 50 
F14 "PB4" I R 2700 2700 50 
F15 "PB5" I R 2700 2800 50 
F16 "PB6" I R 2700 2900 50 
F17 "PB7" I R 2700 3000 50 
F18 "PC0" I R 2700 3300 50 
F19 "PC1" I R 2700 3400 50 
F20 "PC2" I R 2700 3500 50 
F21 "PC3" I R 2700 3600 50 
F22 "PC4" I R 2700 3700 50 
F23 "PC5" I R 2700 3800 50 
F24 "PC6" I R 2700 3900 50 
F25 "PC7" I R 2700 4000 50 
F26 "PD0" I R 2700 4300 50 
F27 "PD1" I R 2700 4400 50 
F28 "PD2" I R 2700 4500 50 
F29 "PD3" I R 2700 4600 50 
F30 "PD4" I R 2700 4700 50 
F31 "PD5" I R 2700 4800 50 
F32 "PD6" I R 2700 4900 50 
F33 "PD7" I R 2700 5000 50 
$EndSheet
Wire Wire Line
	3800 1300 2700 1300
Wire Wire Line
	2700 1400 3800 1400
Wire Wire Line
	3800 1500 2700 1500
Wire Wire Line
	2700 1600 3800 1600
Wire Wire Line
	3800 1700 2700 1700
Wire Wire Line
	2700 1800 3800 1800
Wire Wire Line
	3800 1900 2700 1900
Wire Wire Line
	2700 2000 3800 2000
Wire Wire Line
	2700 3300 3800 3300
Wire Wire Line
	3800 3400 2700 3400
Wire Wire Line
	2700 3500 3800 3500
Wire Wire Line
	3800 3600 2700 3600
Wire Wire Line
	2700 3700 3800 3700
Wire Wire Line
	3800 3800 2700 3800
Wire Wire Line
	2700 3900 3800 3900
Wire Wire Line
	3800 4000 2700 4000
Wire Wire Line
	2700 4300 3800 4300
Wire Wire Line
	3800 4400 2700 4400
Wire Wire Line
	2700 4500 3800 4500
Wire Wire Line
	3800 4600 2700 4600
Wire Wire Line
	2700 4700 3800 4700
Wire Wire Line
	3800 4800 2700 4800
Wire Wire Line
	2700 4900 3800 4900
Wire Wire Line
	3800 5000 2700 5000
Wire Wire Line
	2700 2300 3800 2300
Wire Wire Line
	3800 2400 2700 2400
Wire Wire Line
	2700 2500 3800 2500
Wire Wire Line
	3800 2600 2700 2600
Wire Wire Line
	2700 2700 3800 2700
Wire Wire Line
	3800 2800 2700 2800
Wire Wire Line
	2700 2900 3800 2900
Wire Wire Line
	3800 3000 2700 3000
$EndSCHEMATC
