EESchema Schematic File Version 4
EELAYER 30 0
EELAYER END
$Descr A4 11693 8268
encoding utf-8
Sheet 3 3
Title ""
Date ""
Rev ""
Comp ""
Comment1 ""
Comment2 ""
Comment3 ""
Comment4 ""
$EndDescr
$Comp
L Interface_USB:FT4232H U?
U 1 1 6116CD14
P 5550 4550
AR Path="/6116CD14" Ref="U?"  Part="1" 
AR Path="/6114304B/6116CD14" Ref="U7"  Part="1" 
F 0 "U7" H 6450 6800 50  0000 C CNN
F 1 "FT4232H" H 6550 6700 50  0000 C CNN
F 2 "Package_QFP:LQFP-64_10x10mm_P0.5mm" H 5550 4550 50  0001 C CNN
F 3 "https://www.ftdichip.com/Support/Documents/DataSheets/ICs/DS_FT4232H.pdf" H 5550 4550 50  0001 C CNN
	1    5550 4550
	1    0    0    -1  
$EndComp
$Comp
L Connector:USB_B_Micro J?
U 1 1 6116CD1A
P 1300 3400
AR Path="/6116CD1A" Ref="J?"  Part="1" 
AR Path="/6114304B/6116CD1A" Ref="J5"  Part="1" 
F 0 "J5" H 1357 3867 50  0000 C CNN
F 1 "USB_B_Micro" H 1357 3776 50  0000 C CNN
F 2 "Connector_USB:USB_Micro-B_Molex-105017-0001" H 1450 3350 50  0001 C CNN
F 3 "~" H 1450 3350 50  0001 C CNN
	1    1300 3400
	1    0    0    -1  
$EndComp
$Comp
L local_interfaces:TPD4S012 U?
U 1 1 6116CD20
P 2150 2400
AR Path="/6116CD20" Ref="U?"  Part="1" 
AR Path="/6114304B/6116CD20" Ref="U6"  Part="1" 
F 0 "U6" H 2150 2038 60  0000 C CNN
F 1 "TPD4S012" H 2150 2144 60  0000 C CNN
F 2 "local_uson:USON-10_2.5x1.0mm_P0.5mm" H 2100 2175 60  0001 C CNN
F 3 "" H 2100 2175 60  0001 C CNN
	1    2150 2400
	-1   0    0    1   
$EndComp
$Comp
L Memory_EEPROM:93LCxxB U?
U 1 1 6116CD26
P 2100 5450
AR Path="/6116CD26" Ref="U?"  Part="1" 
AR Path="/6114304B/6116CD26" Ref="U5"  Part="1" 
F 0 "U5" H 2100 5931 50  0000 C CNN
F 1 "93LCxxB" H 2100 5840 50  0000 C CNN
F 2 "Package_SO:SOIC-8-1EP_3.9x4.9mm_P1.27mm_EP2.29x3mm" H 2100 5450 50  0001 C CNN
F 3 "http://ww1.microchip.com/downloads/en/DeviceDoc/20001749K.pdf" H 2100 5450 50  0001 C CNN
	1    2100 5450
	1    0    0    -1  
$EndComp
$Comp
L Device:Crystal_Small X?
U 1 1 6116CD2C
P 3650 6150
AR Path="/6116CD2C" Ref="X?"  Part="1" 
AR Path="/6114304B/6116CD2C" Ref="X1"  Part="1" 
F 0 "X1" V 3604 6238 50  0000 L CNN
F 1 "12MHz" V 3695 6238 50  0000 L CNN
F 2 "HC-49MS_SMD:Crystal_HC49-U_Vertical" H 3650 6150 50  0001 C CNN
F 3 "~" H 3650 6150 50  0001 C CNN
	1    3650 6150
	1    0    0    -1  
$EndComp
$Comp
L Regulator_Linear:TLV1117-33 U?
U 1 1 6116CD32
P 1900 1100
AR Path="/6116CD32" Ref="U?"  Part="1" 
AR Path="/6114304B/6116CD32" Ref="U4"  Part="1" 
F 0 "U4" H 1900 1342 50  0000 C CNN
F 1 "TLV1117-33" H 1900 1251 50  0000 C CNN
F 2 "Package_TO_SOT_SMD:SOT-223" H 1900 1100 50  0001 C CNN
F 3 "http://www.ti.com/lit/ds/symlink/tlv1117.pdf" H 1900 1100 50  0001 C CNN
	1    1900 1100
	1    0    0    -1  
$EndComp
$Comp
L Device:L L?
U 1 1 6116CD38
P 2000 4000
AR Path="/6116CD38" Ref="L?"  Part="1" 
AR Path="/6114304B/6116CD38" Ref="L2"  Part="1" 
F 0 "L2" V 1900 4000 50  0000 C CNN
F 1 "220R" V 1800 4000 50  0000 C CNN
F 2 "Resistor_SMD:R_0603_1608Metric_Pad0.98x0.95mm_HandSolder" H 2000 4000 50  0001 C CNN
F 3 "~" H 2000 4000 50  0001 C CNN
	1    2000 4000
	0    -1   -1   0   
$EndComp
Wire Wire Line
	1600 3200 1750 3200
$Comp
L power:GND #PWR?
U 1 1 6116CD3F
P 2600 4100
AR Path="/6116CD3F" Ref="#PWR?"  Part="1" 
AR Path="/6114304B/6116CD3F" Ref="#PWR0133"  Part="1" 
F 0 "#PWR0133" H 2600 3850 50  0001 C CNN
F 1 "GND" H 2605 3927 50  0000 C CNN
F 2 "" H 2600 4100 50  0001 C CNN
F 3 "" H 2600 4100 50  0001 C CNN
	1    2600 4100
	1    0    0    -1  
$EndComp
Wire Wire Line
	1750 4000 1850 4000
Wire Wire Line
	1750 3700 1750 3200
Connection ~ 1750 3200
Wire Wire Line
	1750 3200 1800 3200
$Comp
L Device:C C?
U 1 1 6116CD49
P 2200 3850
AR Path="/6116CD49" Ref="C?"  Part="1" 
AR Path="/6114304B/6116CD49" Ref="C14"  Part="1" 
F 0 "C14" H 2300 3900 50  0000 L CNN
F 1 "0.1uF" H 2315 3805 50  0000 L CNN
F 2 "Capacitor_SMD:C_0603_1608Metric_Pad1.08x0.95mm_HandSolder" H 2238 3700 50  0001 C CNN
F 3 "~" H 2200 3850 50  0001 C CNN
	1    2200 3850
	1    0    0    -1  
$EndComp
Wire Wire Line
	2150 4000 2200 4000
Wire Wire Line
	2200 3700 2200 3200
Wire Wire Line
	2200 3200 2100 3200
Connection ~ 2200 3200
Connection ~ 2200 4000
NoConn ~ 1750 2400
Wire Wire Line
	1750 2500 1750 3200
Wire Wire Line
	1750 2300 1550 2300
Wire Wire Line
	1550 2300 1550 2350
$Comp
L power:GND #PWR?
U 1 1 6116CD58
P 1550 2350
AR Path="/6116CD58" Ref="#PWR?"  Part="1" 
AR Path="/6114304B/6116CD58" Ref="#PWR0134"  Part="1" 
F 0 "#PWR0134" H 1550 2100 50  0001 C CNN
F 1 "GND" H 1555 2177 50  0000 C CNN
F 2 "" H 1550 2350 50  0001 C CNN
F 3 "" H 1550 2350 50  0001 C CNN
	1    1550 2350
	1    0    0    -1  
$EndComp
Wire Wire Line
	1600 3400 2750 3400
Wire Wire Line
	2750 3400 2750 2500
Wire Wire Line
	2750 2500 2550 2500
Wire Wire Line
	2550 2400 2850 2400
Wire Wire Line
	2850 2400 2850 3500
Wire Wire Line
	2850 3500 1600 3500
Wire Wire Line
	1600 3600 2950 3600
Wire Wire Line
	2950 3600 2950 2300
Wire Wire Line
	2950 2300 2550 2300
Wire Wire Line
	1300 3800 1300 4000
Wire Wire Line
	1300 4000 1750 4000
Connection ~ 1750 4000
$Comp
L power:GND #PWR?
U 1 1 6116CD6A
P 1200 4100
AR Path="/6116CD6A" Ref="#PWR?"  Part="1" 
AR Path="/6114304B/6116CD6A" Ref="#PWR0135"  Part="1" 
F 0 "#PWR0135" H 1200 3850 50  0001 C CNN
F 1 "GND" H 1205 3927 50  0000 C CNN
F 2 "" H 1200 4100 50  0001 C CNN
F 3 "" H 1200 4100 50  0001 C CNN
	1    1200 4100
	1    0    0    -1  
$EndComp
Wire Wire Line
	1200 3800 1200 4100
Wire Wire Line
	2600 4000 2600 4100
$Comp
L power:VDD #PWR?
U 1 1 6116CD78
P 2650 1050
AR Path="/6116CD78" Ref="#PWR?"  Part="1" 
AR Path="/6114304B/6116CD78" Ref="#PWR0137"  Part="1" 
F 0 "#PWR0137" H 2650 900 50  0001 C CNN
F 1 "VDD" H 2665 1223 50  0000 C CNN
F 2 "" H 2650 1050 50  0001 C CNN
F 3 "" H 2650 1050 50  0001 C CNN
	1    2650 1050
	1    0    0    -1  
$EndComp
$Comp
L Device:C C?
U 1 1 6116CD7E
P 2400 1250
AR Path="/6116CD7E" Ref="C?"  Part="1" 
AR Path="/6114304B/6116CD7E" Ref="C15"  Part="1" 
F 0 "C15" H 2515 1296 50  0000 L CNN
F 1 "100uF" H 2515 1205 50  0000 L CNN
F 2 "Capacitor_SMD:C_Elec_10x10.2" H 2438 1100 50  0001 C CNN
F 3 "~" H 2400 1250 50  0001 C CNN
	1    2400 1250
	1    0    0    -1  
$EndComp
$Comp
L Device:C C?
U 1 1 6116CD84
P 1350 1250
AR Path="/6116CD84" Ref="C?"  Part="1" 
AR Path="/6114304B/6116CD84" Ref="C11"  Part="1" 
F 0 "C11" H 1465 1296 50  0000 L CNN
F 1 "10uF" H 1465 1205 50  0000 L CNN
F 2 "Capacitor_Tantalum_SMD:CP_EIA-7343-31_Kemet-D_Pad2.25x2.55mm_HandSolder" H 1388 1100 50  0001 C CNN
F 3 "~" H 1350 1250 50  0001 C CNN
	1    1350 1250
	1    0    0    -1  
$EndComp
Wire Wire Line
	1350 1100 1600 1100
Wire Wire Line
	2200 1100 2400 1100
Wire Wire Line
	1350 1400 1900 1400
Connection ~ 1900 1400
Wire Wire Line
	1900 1400 2400 1400
$Comp
L power:GND #PWR?
U 1 1 6116CD8F
P 1900 1500
AR Path="/6116CD8F" Ref="#PWR?"  Part="1" 
AR Path="/6114304B/6116CD8F" Ref="#PWR0138"  Part="1" 
F 0 "#PWR0138" H 1900 1250 50  0001 C CNN
F 1 "GND" H 1905 1327 50  0000 C CNN
F 2 "" H 1900 1500 50  0001 C CNN
F 3 "" H 1900 1500 50  0001 C CNN
	1    1900 1500
	1    0    0    -1  
$EndComp
Wire Wire Line
	1900 1400 1900 1500
Wire Wire Line
	2400 1100 2650 1100
Connection ~ 2400 1100
Connection ~ 1350 1100
Wire Wire Line
	1100 1100 1350 1100
$Comp
L Device:L L?
U 1 1 6116CDA0
P 1950 3200
AR Path="/6116CDA0" Ref="L?"  Part="1" 
AR Path="/6114304B/6116CDA0" Ref="L1"  Part="1" 
F 0 "L1" V 2140 3200 50  0000 C CNN
F 1 "220R" V 2049 3200 50  0000 C CNN
F 2 "Resistor_SMD:R_0603_1608Metric_Pad0.98x0.95mm_HandSolder" H 1950 3200 50  0001 C CNN
F 3 "~" H 1950 3200 50  0001 C CNN
	1    1950 3200
	0    -1   -1   0   
$EndComp
$Comp
L Device:C C?
U 1 1 6116CDA6
P 1750 3850
AR Path="/6116CDA6" Ref="C?"  Part="1" 
AR Path="/6114304B/6116CDA6" Ref="C13"  Part="1" 
F 0 "C13" H 1865 3896 50  0000 L CNN
F 1 "0.1uF" H 1865 3805 50  0000 L CNN
F 2 "Capacitor_SMD:C_0603_1608Metric_Pad1.08x0.95mm_HandSolder" H 1788 3700 50  0001 C CNN
F 3 "~" H 1750 3850 50  0001 C CNN
	1    1750 3850
	1    0    0    -1  
$EndComp
Wire Wire Line
	2200 4000 2600 4000
Connection ~ 2600 4000
Connection ~ 2600 3200
Wire Wire Line
	2600 3200 2600 3700
Wire Wire Line
	2200 3200 2600 3200
$Comp
L power:GND #PWR?
U 1 1 6116CDB2
P 1550 5000
AR Path="/6116CDB2" Ref="#PWR?"  Part="1" 
AR Path="/6114304B/6116CDB2" Ref="#PWR0140"  Part="1" 
F 0 "#PWR0140" H 1550 4750 50  0001 C CNN
F 1 "GND" H 1555 4827 50  0000 C CNN
F 2 "" H 1550 5000 50  0001 C CNN
F 3 "" H 1550 5000 50  0001 C CNN
	1    1550 5000
	1    0    0    -1  
$EndComp
$Comp
L power:VDD #PWR?
U 1 1 6116CDB8
P 2100 4500
AR Path="/6116CDB8" Ref="#PWR?"  Part="1" 
AR Path="/6114304B/6116CDB8" Ref="#PWR0141"  Part="1" 
F 0 "#PWR0141" H 2100 4350 50  0001 C CNN
F 1 "VDD" H 2115 4673 50  0000 C CNN
F 2 "" H 2100 4500 50  0001 C CNN
F 3 "" H 2100 4500 50  0001 C CNN
	1    2100 4500
	1    0    0    -1  
$EndComp
$Comp
L power:GND #PWR?
U 1 1 6116CDBE
P 2100 5850
AR Path="/6116CDBE" Ref="#PWR?"  Part="1" 
AR Path="/6114304B/6116CDBE" Ref="#PWR0142"  Part="1" 
F 0 "#PWR0142" H 2100 5600 50  0001 C CNN
F 1 "GND" H 2105 5677 50  0000 C CNN
F 2 "" H 2100 5850 50  0001 C CNN
F 3 "" H 2100 5850 50  0001 C CNN
	1    2100 5850
	1    0    0    -1  
$EndComp
Wire Wire Line
	2100 5750 2100 5850
Wire Wire Line
	2100 4500 2100 4600
Wire Wire Line
	1550 4600 2100 4600
Connection ~ 2100 4600
Wire Wire Line
	2100 4600 2100 5150
Wire Wire Line
	1550 4900 1550 5000
Wire Wire Line
	1700 5350 1700 4900
Wire Wire Line
	1700 4900 3550 4900
Wire Wire Line
	3950 4900 3950 5250
Wire Wire Line
	3950 5250 4350 5250
Wire Wire Line
	4350 5350 3200 5350
Wire Wire Line
	2500 5450 3350 5450
$Comp
L Device:R R?
U 1 1 6116CDD0
P 3050 5600
AR Path="/6116CDD0" Ref="R?"  Part="1" 
AR Path="/6114304B/6116CDD0" Ref="R3"  Part="1" 
F 0 "R3" V 3250 5600 50  0000 C CNN
F 1 "2K" V 3150 5600 50  0000 C CNN
F 2 "Resistor_SMD:R_0603_1608Metric_Pad0.98x0.95mm_HandSolder" V 2980 5600 50  0001 C CNN
F 3 "~" H 3050 5600 50  0001 C CNN
	1    3050 5600
	0    1    1    0   
$EndComp
Wire Wire Line
	2500 5550 2750 5550
Wire Wire Line
	2750 5550 2750 5600
Wire Wire Line
	2750 5600 2850 5600
Wire Wire Line
	3200 5600 3350 5600
Wire Wire Line
	3350 5600 3350 5450
Connection ~ 3350 5450
Wire Wire Line
	3350 5450 4350 5450
$Comp
L Device:R R?
U 1 1 6116CDDD
P 2850 4650
AR Path="/6116CDDD" Ref="R?"  Part="1" 
AR Path="/6114304B/6116CDDD" Ref="R2"  Part="1" 
F 0 "R2" V 3050 4650 50  0000 C CNN
F 1 "10K" V 2950 4650 50  0000 C CNN
F 2 "Resistor_SMD:R_0603_1608Metric_Pad0.98x0.95mm_HandSolder" V 2780 4650 50  0001 C CNN
F 3 "~" H 2850 4650 50  0001 C CNN
	1    2850 4650
	-1   0    0    1   
$EndComp
$Comp
L Device:R R?
U 1 1 6116CDE3
P 3200 4650
AR Path="/6116CDE3" Ref="R?"  Part="1" 
AR Path="/6114304B/6116CDE3" Ref="R4"  Part="1" 
F 0 "R4" V 3400 4650 50  0000 C CNN
F 1 "10K" V 3300 4650 50  0000 C CNN
F 2 "Resistor_SMD:R_0603_1608Metric_Pad0.98x0.95mm_HandSolder" V 3130 4650 50  0001 C CNN
F 3 "~" H 3200 4650 50  0001 C CNN
	1    3200 4650
	-1   0    0    1   
$EndComp
$Comp
L Device:R R?
U 1 1 6116CDE9
P 3550 4650
AR Path="/6116CDE9" Ref="R?"  Part="1" 
AR Path="/6114304B/6116CDE9" Ref="R5"  Part="1" 
F 0 "R5" V 3750 4650 50  0000 C CNN
F 1 "10K" V 3650 4650 50  0000 C CNN
F 2 "Resistor_SMD:R_0603_1608Metric_Pad0.98x0.95mm_HandSolder" V 3480 4650 50  0001 C CNN
F 3 "~" H 3550 4650 50  0001 C CNN
	1    3550 4650
	-1   0    0    1   
$EndComp
Wire Wire Line
	3550 4500 3200 4500
Connection ~ 3200 4500
Wire Wire Line
	3200 4500 2850 4500
Wire Wire Line
	2400 4600 2100 4600
Wire Wire Line
	2400 4500 2850 4500
Connection ~ 2850 4500
Wire Wire Line
	2400 4500 2400 4600
Wire Wire Line
	2850 4800 2850 5600
Connection ~ 2850 5600
Wire Wire Line
	2850 5600 2900 5600
Wire Wire Line
	3200 4800 3200 5350
Connection ~ 3200 5350
Wire Wire Line
	3200 5350 2500 5350
Wire Wire Line
	3550 4800 3550 4900
Connection ~ 3550 4900
Wire Wire Line
	3550 4900 3950 4900
Wire Wire Line
	4050 3400 2750 3400
Connection ~ 2750 3400
Wire Wire Line
	2850 3500 3950 3500
Connection ~ 2850 3500
Wire Wire Line
	4050 3750 4350 3750
Wire Wire Line
	4050 3400 4050 3750
Wire Wire Line
	4350 3650 3950 3650
Wire Wire Line
	3950 3650 3950 3500
$Comp
L power:GND #PWR?
U 1 1 6116CE07
P 3600 4000
AR Path="/6116CE07" Ref="#PWR?"  Part="1" 
AR Path="/6114304B/6116CE07" Ref="#PWR0143"  Part="1" 
F 0 "#PWR0143" H 3600 3750 50  0001 C CNN
F 1 "GND" H 3605 3827 50  0000 C CNN
F 2 "" H 3600 4000 50  0001 C CNN
F 3 "" H 3600 4000 50  0001 C CNN
	1    3600 4000
	1    0    0    -1  
$EndComp
$Comp
L power:VDD #PWR?
U 1 1 6116CE0D
P 3850 4450
AR Path="/6116CE0D" Ref="#PWR?"  Part="1" 
AR Path="/6114304B/6116CE0D" Ref="#PWR0144"  Part="1" 
F 0 "#PWR0144" H 3850 4300 50  0001 C CNN
F 1 "VDD" H 3865 4623 50  0000 C CNN
F 2 "" H 3850 4450 50  0001 C CNN
F 3 "" H 3850 4450 50  0001 C CNN
	1    3850 4450
	1    0    0    -1  
$EndComp
$Comp
L Device:R R?
U 1 1 6116CE13
P 3900 3950
AR Path="/6116CE13" Ref="R?"  Part="1" 
AR Path="/6114304B/6116CE13" Ref="R6"  Part="1" 
F 0 "R6" V 4100 3950 50  0000 C CNN
F 1 "12K" V 4000 3950 50  0000 C CNN
F 2 "Resistor_SMD:R_0603_1608Metric_Pad0.98x0.95mm_HandSolder" V 3830 3950 50  0001 C CNN
F 3 "~" H 3900 3950 50  0001 C CNN
	1    3900 3950
	0    -1   -1   0   
$EndComp
Wire Wire Line
	4050 3950 4350 3950
Wire Wire Line
	3750 3950 3600 3950
$Comp
L Device:R R?
U 1 1 6116CE1B
P 4100 4350
AR Path="/6116CE1B" Ref="R?"  Part="1" 
AR Path="/6114304B/6116CE1B" Ref="R7"  Part="1" 
F 0 "R7" V 4200 4350 50  0000 C CNN
F 1 "75R" V 4300 4350 50  0000 C CNN
F 2 "Resistor_SMD:R_0603_1608Metric_Pad0.98x0.95mm_HandSolder" V 4030 4350 50  0001 C CNN
F 3 "~" H 4100 4350 50  0001 C CNN
	1    4100 4350
	1    0    0    -1  
$EndComp
Wire Wire Line
	4350 4150 4100 4150
Wire Wire Line
	4100 4150 4100 4200
Wire Wire Line
	3850 4500 4100 4500
$Comp
L Device:C C?
U 1 1 6116CE24
P 3450 6450
AR Path="/6116CE24" Ref="C?"  Part="1" 
AR Path="/6114304B/6116CE24" Ref="C17"  Part="1" 
F 0 "C17" H 3565 6496 50  0000 L CNN
F 1 "27pF" H 3565 6405 50  0000 L CNN
F 2 "Capacitor_SMD:C_0603_1608Metric_Pad1.08x0.95mm_HandSolder" H 3488 6300 50  0001 C CNN
F 3 "~" H 3450 6450 50  0001 C CNN
	1    3450 6450
	1    0    0    -1  
$EndComp
$Comp
L Device:C C?
U 1 1 6116CE2A
P 3850 6450
AR Path="/6116CE2A" Ref="C?"  Part="1" 
AR Path="/6114304B/6116CE2A" Ref="C19"  Part="1" 
F 0 "C19" H 3965 6496 50  0000 L CNN
F 1 "27pF" H 3965 6405 50  0000 L CNN
F 2 "Capacitor_SMD:C_0603_1608Metric_Pad1.08x0.95mm_HandSolder" H 3888 6300 50  0001 C CNN
F 3 "~" H 3850 6450 50  0001 C CNN
	1    3850 6450
	1    0    0    -1  
$EndComp
Wire Wire Line
	4350 5750 3450 5750
Wire Wire Line
	3450 5750 3450 6150
Wire Wire Line
	3450 6150 3550 6150
Connection ~ 3450 6150
Wire Wire Line
	3450 6150 3450 6300
Wire Wire Line
	3850 6150 3850 6300
Wire Wire Line
	3750 6150 3850 6150
Wire Wire Line
	3850 6150 4350 6150
Connection ~ 3850 6150
Wire Wire Line
	3450 6600 3450 6700
Wire Wire Line
	3450 6700 3650 6700
Wire Wire Line
	3850 6700 3850 6600
$Comp
L power:GND #PWR?
U 1 1 6116CE3C
P 3650 6700
AR Path="/6116CE3C" Ref="#PWR?"  Part="1" 
AR Path="/6114304B/6116CE3C" Ref="#PWR0145"  Part="1" 
F 0 "#PWR0145" H 3650 6450 50  0001 C CNN
F 1 "GND" H 3655 6527 50  0000 C CNN
F 2 "" H 3650 6700 50  0001 C CNN
F 3 "" H 3650 6700 50  0001 C CNN
	1    3650 6700
	1    0    0    -1  
$EndComp
Connection ~ 3650 6700
Wire Wire Line
	3650 6700 3850 6700
$Comp
L power:GND #PWR?
U 1 1 6116CE44
P 4350 6700
AR Path="/6116CE44" Ref="#PWR?"  Part="1" 
AR Path="/6114304B/6116CE44" Ref="#PWR0146"  Part="1" 
F 0 "#PWR0146" H 4350 6450 50  0001 C CNN
F 1 "GND" H 4355 6527 50  0000 C CNN
F 2 "" H 4350 6700 50  0001 C CNN
F 3 "" H 4350 6700 50  0001 C CNN
	1    4350 6700
	1    0    0    -1  
$EndComp
Wire Wire Line
	4350 6350 4350 6700
Wire Wire Line
	4950 6650 4950 6850
Wire Wire Line
	5850 6650 5850 6850
Wire Wire Line
	5850 6850 5750 6850
Connection ~ 4950 6850
Wire Wire Line
	4950 6850 4950 7000
Wire Wire Line
	5150 6650 5150 6850
Connection ~ 5150 6850
Wire Wire Line
	5150 6850 4950 6850
Wire Wire Line
	5250 6650 5250 6850
Connection ~ 5250 6850
Wire Wire Line
	5250 6850 5150 6850
Wire Wire Line
	5350 6650 5350 6850
Connection ~ 5350 6850
Wire Wire Line
	5350 6850 5250 6850
Wire Wire Line
	5450 6650 5450 6850
Connection ~ 5450 6850
Wire Wire Line
	5450 6850 5350 6850
Wire Wire Line
	5550 6650 5550 6850
Connection ~ 5550 6850
Wire Wire Line
	5550 6850 5450 6850
Wire Wire Line
	5650 6650 5650 6850
Connection ~ 5650 6850
Wire Wire Line
	5650 6850 5550 6850
Wire Wire Line
	5750 6650 5750 6850
Connection ~ 5750 6850
Wire Wire Line
	5750 6850 5650 6850
$Comp
L power:GND #PWR?
U 1 1 6116CE65
P 4950 7000
AR Path="/6116CE65" Ref="#PWR?"  Part="1" 
AR Path="/6114304B/6116CE65" Ref="#PWR0147"  Part="1" 
F 0 "#PWR0147" H 4950 6750 50  0001 C CNN
F 1 "GND" H 4955 6827 50  0000 C CNN
F 2 "" H 4950 7000 50  0001 C CNN
F 3 "" H 4950 7000 50  0001 C CNN
	1    4950 7000
	1    0    0    -1  
$EndComp
$Comp
L Device:L L?
U 1 1 6116CE6B
P 3450 1150
AR Path="/6116CE6B" Ref="L?"  Part="1" 
AR Path="/6114304B/6116CE6B" Ref="L3"  Part="1" 
F 0 "L3" V 3640 1150 50  0000 C CNN
F 1 "600R" V 3549 1150 50  0000 C CNN
F 2 "Resistor_SMD:R_0603_1608Metric_Pad0.98x0.95mm_HandSolder" H 3450 1150 50  0001 C CNN
F 3 "~" H 3450 1150 50  0001 C CNN
	1    3450 1150
	0    -1   -1   0   
$EndComp
$Comp
L Device:C C?
U 1 1 6116CE71
P 3750 1400
AR Path="/6116CE71" Ref="C?"  Part="1" 
AR Path="/6114304B/6116CE71" Ref="C18"  Part="1" 
F 0 "C18" H 3865 1446 50  0000 L CNN
F 1 "4.7uF" H 3865 1355 50  0000 L CNN
F 2 "Capacitor_SMD:C_0603_1608Metric_Pad1.08x0.95mm_HandSolder" H 3788 1250 50  0001 C CNN
F 3 "~" H 3750 1400 50  0001 C CNN
	1    3750 1400
	1    0    0    -1  
$EndComp
$Comp
L Device:C C?
U 1 1 6116CE77
P 4200 1400
AR Path="/6116CE77" Ref="C?"  Part="1" 
AR Path="/6114304B/6116CE77" Ref="C20"  Part="1" 
F 0 "C20" H 4315 1446 50  0000 L CNN
F 1 "0.1uF" H 4315 1355 50  0000 L CNN
F 2 "Capacitor_SMD:C_0603_1608Metric_Pad1.08x0.95mm_HandSolder" H 4238 1250 50  0001 C CNN
F 3 "~" H 4200 1400 50  0001 C CNN
	1    4200 1400
	1    0    0    -1  
$EndComp
Wire Wire Line
	3600 1150 3750 1150
Wire Wire Line
	3750 1150 3750 1250
Wire Wire Line
	3750 1150 4200 1150
Wire Wire Line
	4200 1150 4200 1250
Connection ~ 3750 1150
Wire Wire Line
	4200 1550 4200 1650
Wire Wire Line
	4200 1650 4000 1650
Wire Wire Line
	3750 1650 3750 1550
Wire Wire Line
	3300 1150 3200 1150
Wire Wire Line
	3200 1150 3200 1050
$Comp
L power:VDD #PWR?
U 1 1 6116CE87
P 3200 1050
AR Path="/6116CE87" Ref="#PWR?"  Part="1" 
AR Path="/6114304B/6116CE87" Ref="#PWR0148"  Part="1" 
F 0 "#PWR0148" H 3200 900 50  0001 C CNN
F 1 "VDD" H 3215 1223 50  0000 C CNN
F 2 "" H 3200 1050 50  0001 C CNN
F 3 "" H 3200 1050 50  0001 C CNN
	1    3200 1050
	1    0    0    -1  
$EndComp
$Comp
L power:GND #PWR?
U 1 1 6116CE8D
P 4000 1650
AR Path="/6116CE8D" Ref="#PWR?"  Part="1" 
AR Path="/6114304B/6116CE8D" Ref="#PWR0149"  Part="1" 
F 0 "#PWR0149" H 4000 1400 50  0001 C CNN
F 1 "GND" H 4005 1477 50  0000 C CNN
F 2 "" H 4000 1650 50  0001 C CNN
F 3 "" H 4000 1650 50  0001 C CNN
	1    4000 1650
	1    0    0    -1  
$EndComp
Connection ~ 4000 1650
Wire Wire Line
	4000 1650 3750 1650
$Comp
L Device:L L?
U 1 1 6116CE95
P 6600 1150
AR Path="/6116CE95" Ref="L?"  Part="1" 
AR Path="/6114304B/6116CE95" Ref="L4"  Part="1" 
F 0 "L4" V 6790 1150 50  0000 C CNN
F 1 "600R" V 6699 1150 50  0000 C CNN
F 2 "Resistor_SMD:R_0603_1608Metric_Pad0.98x0.95mm_HandSolder" H 6600 1150 50  0001 C CNN
F 3 "~" H 6600 1150 50  0001 C CNN
	1    6600 1150
	0    -1   -1   0   
$EndComp
$Comp
L Device:C C?
U 1 1 6116CE9B
P 6200 1400
AR Path="/6116CE9B" Ref="C?"  Part="1" 
AR Path="/6114304B/6116CE9B" Ref="C22"  Part="1" 
F 0 "C22" H 5850 1500 50  0000 L CNN
F 1 "4.7uF" H 5850 1400 50  0000 L CNN
F 2 "Capacitor_SMD:C_0603_1608Metric_Pad1.08x0.95mm_HandSolder" H 6238 1250 50  0001 C CNN
F 3 "~" H 6200 1400 50  0001 C CNN
	1    6200 1400
	1    0    0    -1  
$EndComp
$Comp
L Device:C C?
U 1 1 6116CEA1
P 5700 1400
AR Path="/6116CEA1" Ref="C?"  Part="1" 
AR Path="/6114304B/6116CEA1" Ref="C21"  Part="1" 
F 0 "C21" H 5400 1500 50  0000 L CNN
F 1 "0.1uF" H 5400 1400 50  0000 L CNN
F 2 "Capacitor_SMD:C_0603_1608Metric_Pad1.08x0.95mm_HandSolder" H 5738 1250 50  0001 C CNN
F 3 "~" H 5700 1400 50  0001 C CNN
	1    5700 1400
	1    0    0    -1  
$EndComp
$Comp
L power:VDD #PWR?
U 1 1 6116CEB1
P 6950 1050
AR Path="/6116CEB1" Ref="#PWR?"  Part="1" 
AR Path="/6114304B/6116CEB1" Ref="#PWR0150"  Part="1" 
F 0 "#PWR0150" H 6950 900 50  0001 C CNN
F 1 "VDD" H 6965 1223 50  0000 C CNN
F 2 "" H 6950 1050 50  0001 C CNN
F 3 "" H 6950 1050 50  0001 C CNN
	1    6950 1050
	1    0    0    -1  
$EndComp
$Comp
L power:GND #PWR?
U 1 1 6116CEB7
P 5950 1650
AR Path="/6116CEB7" Ref="#PWR?"  Part="1" 
AR Path="/6114304B/6116CEB7" Ref="#PWR0151"  Part="1" 
F 0 "#PWR0151" H 5950 1400 50  0001 C CNN
F 1 "GND" H 5955 1477 50  0000 C CNN
F 2 "" H 5950 1650 50  0001 C CNN
F 3 "" H 5950 1650 50  0001 C CNN
	1    5950 1650
	1    0    0    -1  
$EndComp
Connection ~ 4200 1150
Wire Wire Line
	3850 4450 3850 4500
Wire Wire Line
	3600 3950 3600 4000
Wire Wire Line
	1100 1050 1100 1100
Wire Wire Line
	2650 1050 2650 1100
$Comp
L power:VDD #PWR?
U 1 1 6116CECD
P 4150 2600
AR Path="/6116CECD" Ref="#PWR?"  Part="1" 
AR Path="/6114304B/6116CECD" Ref="#PWR0152"  Part="1" 
F 0 "#PWR0152" H 4150 2450 50  0001 C CNN
F 1 "VDD" H 4165 2773 50  0000 C CNN
F 2 "" H 4150 2600 50  0001 C CNN
F 3 "" H 4150 2600 50  0001 C CNN
	1    4150 2600
	1    0    0    -1  
$EndComp
Wire Wire Line
	3900 2850 4350 2850
Wire Wire Line
	4150 2600 4150 2650
Wire Wire Line
	4150 2650 4350 2650
Wire Wire Line
	5550 2350 5550 2250
Wire Wire Line
	5550 2250 5450 2250
Wire Wire Line
	3900 2250 3900 2850
Wire Wire Line
	5450 2250 5450 2350
Connection ~ 5450 2250
Wire Wire Line
	5450 2250 5350 2250
Wire Wire Line
	5350 2350 5350 2250
Connection ~ 5350 2250
Wire Wire Line
	5350 2250 3900 2250
Wire Wire Line
	5750 2350 5750 2250
Wire Wire Line
	5750 2250 5850 2250
Wire Wire Line
	6050 2250 6050 2350
Wire Wire Line
	5950 2350 5950 2250
Connection ~ 5950 2250
Wire Wire Line
	5950 2250 6050 2250
Wire Wire Line
	5850 2250 5850 2350
Connection ~ 5850 2250
Wire Wire Line
	5850 2250 5950 2250
Wire Wire Line
	6050 2250 6200 2250
Wire Wire Line
	6200 2250 6200 2200
Connection ~ 6050 2250
$Comp
L power:VDD #PWR?
U 1 1 6116CEEB
P 6200 2200
AR Path="/6116CEEB" Ref="#PWR?"  Part="1" 
AR Path="/6114304B/6116CEEB" Ref="#PWR0153"  Part="1" 
F 0 "#PWR0153" H 6200 2050 50  0001 C CNN
F 1 "VDD" H 6215 2373 50  0000 C CNN
F 2 "" H 6200 2200 50  0001 C CNN
F 3 "" H 6200 2200 50  0001 C CNN
	1    6200 2200
	1    0    0    -1  
$EndComp
$Comp
L Device:C C?
U 1 1 6116CEF1
P 2600 3850
AR Path="/6116CEF1" Ref="C?"  Part="1" 
AR Path="/6114304B/6116CEF1" Ref="C16"  Part="1" 
F 0 "C16" H 2715 3896 50  0000 L CNN
F 1 "10uF" H 2715 3805 50  0000 L CNN
F 2 "Capacitor_Tantalum_SMD:CP_EIA-7343-31_Kemet-D_Pad2.25x2.55mm_HandSolder" H 2638 3700 50  0001 C CNN
F 3 "~" H 2600 3850 50  0001 C CNN
	1    2600 3850
	1    0    0    -1  
$EndComp
$Comp
L Device:C C?
U 1 1 6116CEF7
P 1550 4750
AR Path="/6116CEF7" Ref="C?"  Part="1" 
AR Path="/6114304B/6116CEF7" Ref="C12"  Part="1" 
F 0 "C12" H 1650 4800 50  0000 L CNN
F 1 "0.1uF" H 1665 4705 50  0000 L CNN
F 2 "Capacitor_SMD:C_0603_1608Metric_Pad1.08x0.95mm_HandSolder" H 1588 4600 50  0001 C CNN
F 3 "~" H 1550 4750 50  0001 C CNN
	1    1550 4750
	1    0    0    -1  
$EndComp
NoConn ~ 6750 6250
NoConn ~ 6750 6350
Wire Wire Line
	5950 1650 5700 1650
Wire Wire Line
	5700 1550 5700 1650
Wire Wire Line
	5950 1650 6200 1650
Wire Wire Line
	6200 1650 6200 1550
Connection ~ 5950 1650
Wire Wire Line
	5150 1150 5700 1150
Wire Wire Line
	5150 1150 5150 2350
Wire Wire Line
	6200 1250 6200 1150
Connection ~ 6200 1150
Wire Wire Line
	6200 1150 6450 1150
Wire Wire Line
	5700 1150 5700 1250
Connection ~ 5700 1150
Wire Wire Line
	5700 1150 6200 1150
Wire Wire Line
	6750 1150 6950 1150
Wire Wire Line
	6950 1150 6950 1050
Wire Wire Line
	4200 1150 5050 1150
Wire Wire Line
	5050 1150 5050 2350
Text HLabel 7100 2650 2    50   Input ~ 0
PA0
Text HLabel 7100 2750 2    50   Input ~ 0
PA1
Text HLabel 7100 2850 2    50   Input ~ 0
PA2
Text HLabel 7100 2950 2    50   Input ~ 0
PA3
Text HLabel 7100 3050 2    50   Input ~ 0
PA4
Text HLabel 7100 3150 2    50   Input ~ 0
PA5
Text HLabel 7100 3250 2    50   Input ~ 0
PA6
Text HLabel 7100 3350 2    50   Input ~ 0
PA7
Text HLabel 7100 3550 2    50   Input ~ 0
PB0
Text HLabel 7100 3650 2    50   Input ~ 0
PB1
Text HLabel 7100 3750 2    50   Input ~ 0
PB2
Text HLabel 7100 3850 2    50   Input ~ 0
PB3
Text HLabel 7100 3950 2    50   Input ~ 0
PB4
Text HLabel 7100 4050 2    50   Input ~ 0
PB5
Text HLabel 7100 4150 2    50   Input ~ 0
PB6
Text HLabel 7100 4250 2    50   Input ~ 0
PB7
Text HLabel 7100 4450 2    50   Input ~ 0
PC0
Text HLabel 7100 4550 2    50   Input ~ 0
PC1
Text HLabel 7100 4650 2    50   Input ~ 0
PC2
Text HLabel 7100 4750 2    50   Input ~ 0
PC3
Text HLabel 7100 4850 2    50   Input ~ 0
PC4
Text HLabel 7100 4950 2    50   Input ~ 0
PC5
Text HLabel 7100 5050 2    50   Input ~ 0
PC6
Text HLabel 7100 5150 2    50   Input ~ 0
PC7
Text HLabel 7100 5350 2    50   Input ~ 0
PD0
Text HLabel 7100 5450 2    50   Input ~ 0
PD1
Text HLabel 7100 5550 2    50   Input ~ 0
PD2
Text HLabel 7100 5650 2    50   Input ~ 0
PD3
Text HLabel 7100 5750 2    50   Input ~ 0
PD4
Text HLabel 7100 5850 2    50   Input ~ 0
PD5
Text HLabel 7100 5950 2    50   Input ~ 0
PD6
Text HLabel 7100 6050 2    50   Input ~ 0
PD7
Wire Wire Line
	6750 2650 7100 2650
Wire Wire Line
	6750 2750 7100 2750
Wire Wire Line
	7100 2850 6750 2850
Wire Wire Line
	6750 2950 7100 2950
Wire Wire Line
	7100 3050 6750 3050
Wire Wire Line
	6750 3150 7100 3150
Wire Wire Line
	7100 3250 6750 3250
Wire Wire Line
	6750 3350 7100 3350
Wire Wire Line
	7100 3550 6750 3550
Wire Wire Line
	6750 3650 7100 3650
Wire Wire Line
	7100 3750 6750 3750
Wire Wire Line
	6750 3850 7100 3850
Wire Wire Line
	7100 3950 6750 3950
Wire Wire Line
	6750 4050 7100 4050
Wire Wire Line
	7100 4150 6750 4150
Wire Wire Line
	6750 4250 7100 4250
Wire Wire Line
	7100 4550 6750 4550
Wire Wire Line
	6750 4450 7100 4450
Wire Wire Line
	6750 4650 7100 4650
Wire Wire Line
	7100 4750 6750 4750
Wire Wire Line
	6750 4850 7100 4850
Wire Wire Line
	7100 4950 6750 4950
Wire Wire Line
	6750 5050 7100 5050
Wire Wire Line
	7100 5150 6750 5150
Wire Wire Line
	6750 5350 7100 5350
Wire Wire Line
	7100 5450 6750 5450
Wire Wire Line
	6750 5550 7100 5550
Wire Wire Line
	7100 5650 6750 5650
Wire Wire Line
	6750 5750 7100 5750
Wire Wire Line
	7100 5850 6750 5850
Wire Wire Line
	6750 5950 7100 5950
Wire Wire Line
	7100 6050 6750 6050
Text GLabel 2600 2850 1    50   Input ~ 0
Vusb
Wire Wire Line
	2600 2850 2600 2950
$Comp
L power:PWR_FLAG #FLG0102
U 1 1 618F7825
P 2300 2850
F 0 "#FLG0102" H 2300 2925 50  0001 C CNN
F 1 "PWR_FLAG" H 2300 3023 50  0000 C CNN
F 2 "" H 2300 2850 50  0001 C CNN
F 3 "~" H 2300 2850 50  0001 C CNN
	1    2300 2850
	1    0    0    -1  
$EndComp
Wire Wire Line
	2300 2850 2300 2950
Wire Wire Line
	2300 2950 2600 2950
Connection ~ 2600 2950
Wire Wire Line
	2600 2950 2600 3200
Text GLabel 1100 1050 1    50   Input ~ 0
Vusb
$Comp
L power:PWR_FLAG #FLG0103
U 1 1 619083D4
P 4200 1050
F 0 "#FLG0103" H 4200 1125 50  0001 C CNN
F 1 "PWR_FLAG" H 4200 1223 50  0000 C CNN
F 2 "" H 4200 1050 50  0001 C CNN
F 3 "~" H 4200 1050 50  0001 C CNN
	1    4200 1050
	1    0    0    -1  
$EndComp
$Comp
L power:PWR_FLAG #FLG0104
U 1 1 61909AA5
P 5700 1050
F 0 "#FLG0104" H 5700 1125 50  0001 C CNN
F 1 "PWR_FLAG" H 5700 1223 50  0000 C CNN
F 2 "" H 5700 1050 50  0001 C CNN
F 3 "~" H 5700 1050 50  0001 C CNN
	1    5700 1050
	1    0    0    -1  
$EndComp
Wire Wire Line
	5700 1050 5700 1150
Wire Wire Line
	4200 1050 4200 1150
$EndSCHEMATC
