(module Crystal_HC49-U_Vertical (layer F.Cu) (tedit 61240C81)
  (descr "Crystal THT HC-49/U http://5hertz.com/pdfs/04404_D.pdf")
  (tags "THT crystalHC-49/U")
  (fp_text reference REF** (at 2.44 -3.525) (layer F.SilkS)
    (effects (font (size 1 1) (thickness 0.15)))
  )
  (fp_text value Crystal_HC49-U_Vertical (at 2.44 3.525) (layer F.Fab)
    (effects (font (size 1 1) (thickness 0.15)))
  )
  (fp_line (start 8.4 -2.8) (end -3.5 -2.8) (layer F.CrtYd) (width 0.05))
  (fp_line (start 8.4 2.8) (end 8.4 -2.8) (layer F.CrtYd) (width 0.05))
  (fp_line (start -3.5 2.8) (end 8.4 2.8) (layer F.CrtYd) (width 0.05))
  (fp_line (start -3.5 -2.8) (end -3.5 2.8) (layer F.CrtYd) (width 0.05))
  (fp_line (start -0.685 2.525) (end 5.565 2.525) (layer F.SilkS) (width 0.12))
  (fp_line (start -0.685 -2.525) (end 5.565 -2.525) (layer F.SilkS) (width 0.12))
  (fp_line (start -0.56 2) (end 5.44 2) (layer F.Fab) (width 0.1))
  (fp_line (start -0.56 -2) (end 5.44 -2) (layer F.Fab) (width 0.1))
  (fp_line (start -0.685 2.325) (end 5.565 2.325) (layer F.Fab) (width 0.1))
  (fp_line (start -0.685 -2.325) (end 5.565 -2.325) (layer F.Fab) (width 0.1))
  (fp_text user %R (at 2.44 0) (layer F.Fab)
    (effects (font (size 1 1) (thickness 0.15)))
  )
  (fp_arc (start -0.685 0) (end -0.685 -2.325) (angle -180) (layer F.Fab) (width 0.1))
  (fp_arc (start 5.565 0) (end 5.565 -2.325) (angle 180) (layer F.Fab) (width 0.1))
  (fp_arc (start -0.56 0) (end -0.56 -2) (angle -180) (layer F.Fab) (width 0.1))
  (fp_arc (start 5.44 0) (end 5.44 -2) (angle 180) (layer F.Fab) (width 0.1))
  (fp_arc (start -0.685 0) (end -0.685 -2.525) (angle -180) (layer F.SilkS) (width 0.12))
  (fp_arc (start 5.565 0) (end 5.565 -2.525) (angle 180) (layer F.SilkS) (width 0.12))
  (pad 1 smd rect (at -2.667 0) (size 4 2) (layers F.Cu F.Paste F.Mask))
  (pad 2 smd rect (at 7.62 0) (size 4 2) (layers F.Cu F.Paste F.Mask))
  (model ${KISYS3DMOD}/Crystal.3dshapes/Crystal_HC49-U_Vertical.wrl
    (at (xyz 0 0 0))
    (scale (xyz 1 1 1))
    (rotate (xyz 0 0 0))
  )
)
